C:\Users\Julita\IdeaProjects\interviewMeTest\src\main\java\element\PersonalDataElements.java
C:\Users\Julita\IdeaProjects\interviewMeTest\src\main\java\element\HowItWorksElements.java
C:\Users\Julita\IdeaProjects\interviewMeTest\src\main\java\page\HowItWorksPage.java
C:\Users\Julita\IdeaProjects\interviewMeTest\src\main\java\page\PersonalDataPage.java
